"id","name","model_id:id","group_id:id","perm_read","perm_write","perm_create","perm_unlink"
"access_actividad","actividad","model_actividad","base.group_user",1,0,0,0
"access_especie","especie","model_especie","base.group_user",1,0,0,0
"access_estado","estado","model_estado","base.group_user",1,0,0,0
"access_municipio","municipio","model_municipio","base.group_user",1,0,0,0
"access_parroquia","parroquia","model_parroquia","base.group_user",1,0,0,0
"access_medio_comunicacion","medio_comunicacion","model_medio_comunicacion","base.group_user",1,0,0,0
"access_tipo_especie_conf","tipo_especie_conf","model_tipo_especie_conf","base.group_user",1,0,0,0
"access_act_formativa","act_formativa","model_act_formativa","base.group_user",1,0,0,0
"access_act_articulacion","act_articulacion","model_act_articulacion","base.group_user",1,0,0,0
"access_act_agitacion","act_agitacion","model_act_agitacion","base.group_user",1,0,0,0
"access_contacto_basemision_comunidad_urbanismo","contacto_basemision_comunidad_urbanismo","model_contacto_basemision_comunidad_urbanismo","base.group_user",1,0,0,0
"access_urbanismos_basesmisiones_comunidades","urbanismos_basesmisiones_comunidades","model_urbanismos_basesmisiones_comunidades","base.group_user",1,0,0,0
"access_movimientos_organizacionesecosocialistas","movimientos_organizacionesecosocialistas","model_movimientos_organizacionesecosocialistas","base.group_user",1,0,0,0
"access_contactos_movimientos_orgaecosocialistas","contactos_movimientos_orgaecosocialistas","model_contactos_movimientos_orgaecosocialistas","base.group_user",1,0,0,0
